INDEX VERSION 1.3+C:\TS\FSD\fsd53\1.AdvJava\Workspace\.metadata\.plugins\org.eclipse.wst.jsdt.core\indexes
650958617.index
2889170302.index
3268989307.index
3762282314.index
2571775592.index
1649841471.index
